[
    {
        "id": "5acb42e6c9347",
        "module": "paralax",
        "fields": {
            "text": {
                "type": "text",
                "value": "<h4>Bienvenue sur votre site web<\/h4>"
            },
            "imgUrl": {
                "type": "text",
                "value": "app\/views\/modules\/paralax\/background3.jpg"
            }
        }
    },
    {
        "id": "5ae03293eeed4",
        "module": "caroussel",
        "fields": {
            "text0": {
                "type": "text",
                "value": ""
            },
            "imgUrl0": {
                "type": "text",
                "value": "app\/views\/modules\/paralax\/background3.jpg"
            },
            "text1": {
                "type": "text",
                "value": ""
            },
            "imgUrl1": {
                "type": "text",
                "value": "app\/views\/modules\/paralax\/background3.jpg"
            },
            "text2": {
                "type": "text",
                "value": ""
            },
            "imgUrl2": {
                "type": "text",
                "value": "app\/views\/modules\/paralax\/background3.jpg"
            },
            "text3": {
                "type": "text",
                "value": ""
            },
            "imgUrl3": {
                "type": "text",
                "value": ""
            },
            "text4": {
                "type": "text",
                "value": ""
            },
            "imgUrl4": {
                "type": "text",
                "value": ""
            },
            "text5": {
                "type": "text",
                "value": ""
            },
            "imgUrl5": {
                "type": "text",
                "value": ""
            },
            "text6": {
                "type": "text",
                "value": ""
            },
            "imgUrl6": {
                "type": "text",
                "value": ""
            },
            "text7": {
                "type": "text",
                "value": ""
            },
            "imgUrl7": {
                "type": "text",
                "value": ""
            }
        }
    },
    {
        "id": "5ae032a9b053a",
        "module": "gallery_little",
        "fields": {
            "title": {
                "type": "text",
                "value": "<h5>Galerie<\/h5>"
            },
            "imgUrl0": {
                "type": "text",
                "value": "app\/views\/modules\/gallery\/aquarelle_2.jpg"
            },
            "imgUrl1": {
                "type": "text",
                "value": ""
            },
            "imgUrl2": {
                "type": "text",
                "value": ""
            },
            "imgUrl3": {
                "type": "text",
                "value": ""
            },
            "imgUrl4": {
                "type": "text",
                "value": ""
            },
            "imgUrl5": {
                "type": "text",
                "value": ""
            },
            "imgUrl6": {
                "type": "text",
                "value": ""
            },
            "imgUrl7": {
                "type": "text",
                "value": ""
            },
            "imgUrl8": {
                "type": "text",
                "value": ""
            },
            "imgUrl9": {
                "type": "text",
                "value": ""
            },
            "imgUrl10": {
                "type": "text",
                "value": ""
            },
            "imgUrl11": {
                "type": "text",
                "value": ""
            },
            "imgUrl12": {
                "type": "text",
                "value": ""
            },
            "imgUrl13": {
                "type": "text",
                "value": ""
            },
            "imgUrl14": {
                "type": "text",
                "value": ""
            },
            "imgUrl15": {
                "type": "text",
                "value": ""
            },
            "imgUrl16": {
                "type": "text",
                "value": ""
            },
            "imgUrl17": {
                "type": "text",
                "value": ""
            },
            "imgUrl18": {
                "type": "text",
                "value": ""
            },
            "imgUrl19": {
                "type": "text",
                "value": ""
            },
            "imgUrl20": {
                "type": "text",
                "value": ""
            },
            "imgUrl21": {
                "type": "text",
                "value": ""
            },
            "imgUrl22": {
                "type": "text",
                "value": ""
            },
            "imgUrl23": {
                "type": "text",
                "value": ""
            },
            "imgUrl24": {
                "type": "text",
                "value": ""
            },
            "imgUrl25": {
                "type": "text",
                "value": ""
            },
            "imgUrl26": {
                "type": "text",
                "value": ""
            },
            "imgUrl27": {
                "type": "text",
                "value": ""
            },
            "imgUrl28": {
                "type": "text",
                "value": ""
            },
            "imgUrl29": {
                "type": "text",
                "value": ""
            },
            "imgUrl30": {
                "type": "text",
                "value": ""
            },
            "imgUrl31": {
                "type": "text",
                "value": ""
            },
            "imgUrl32": {
                "type": "text",
                "value": ""
            },
            "imgUrl33": {
                "type": "text",
                "value": ""
            },
            "imgUrl34": {
                "type": "text",
                "value": ""
            },
            "imgUrl35": {
                "type": "text",
                "value": ""
            },
            "imgUrl36": {
                "type": "text",
                "value": ""
            },
            "imgUrl37": {
                "type": "text",
                "value": ""
            },
            "imgUrl38": {
                "type": "text",
                "value": ""
            },
            "imgUrl39": {
                "type": "text",
                "value": ""
            },
            "imgUrl40": {
                "type": "text",
                "value": ""
            },
            "imgUrl41": {
                "type": "text",
                "value": ""
            },
            "imgUrl42": {
                "type": "text",
                "value": ""
            },
            "imgUrl43": {
                "type": "text",
                "value": ""
            },
            "imgUrl44": {
                "type": "text",
                "value": ""
            },
            "imgUrl45": {
                "type": "text",
                "value": ""
            },
            "imgUrl46": {
                "type": "text",
                "value": ""
            },
            "imgUrl47": {
                "type": "text",
                "value": ""
            },
            "imgUrl48": {
                "type": "text",
                "value": ""
            },
            "imgUrl49": {
                "type": "text",
                "value": ""
            },
            "imgUrl50": {
                "type": "text",
                "value": ""
            },
            "imgUrl51": {
                "type": "text",
                "value": ""
            },
            "imgUrl52": {
                "type": "text",
                "value": ""
            },
            "imgUrl53": {
                "type": "text",
                "value": ""
            },
            "imgUrl54": {
                "type": "text",
                "value": ""
            },
            "imgUrl55": {
                "type": "text",
                "value": ""
            },
            "imgUrl56": {
                "type": "text",
                "value": ""
            },
            "imgUrl57": {
                "type": "text",
                "value": ""
            },
            "imgUrl58": {
                "type": "text",
                "value": ""
            },
            "imgUrl59": {
                "type": "text",
                "value": ""
            },
            "imgUrl60": {
                "type": "text",
                "value": ""
            },
            "imgUrl61": {
                "type": "text",
                "value": ""
            },
            "imgUrl62": {
                "type": "text",
                "value": ""
            },
            "imgUrl63": {
                "type": "text",
                "value": ""
            },
            "imgUrl64": {
                "type": "text",
                "value": ""
            },
            "imgUrl65": {
                "type": "text",
                "value": ""
            },
            "imgUrl66": {
                "type": "text",
                "value": ""
            },
            "imgUrl67": {
                "type": "text",
                "value": ""
            },
            "imgUrl68": {
                "type": "text",
                "value": ""
            },
            "imgUrl69": {
                "type": "text",
                "value": ""
            },
            "imgUrl70": {
                "type": "text",
                "value": ""
            },
            "imgUrl71": {
                "type": "text",
                "value": ""
            },
            "imgUrl72": {
                "type": "text",
                "value": ""
            },
            "imgUrl73": {
                "type": "text",
                "value": ""
            },
            "imgUrl74": {
                "type": "text",
                "value": ""
            },
            "imgUrl75": {
                "type": "text",
                "value": ""
            },
            "imgUrl76": {
                "type": "text",
                "value": ""
            },
            "imgUrl77": {
                "type": "text",
                "value": ""
            },
            "imgUrl78": {
                "type": "text",
                "value": ""
            },
            "imgUrl79": {
                "type": "text",
                "value": ""
            },
            "imgUrl80": {
                "type": "text",
                "value": ""
            },
            "imgUrl81": {
                "type": "text",
                "value": ""
            },
            "imgUrl82": {
                "type": "text",
                "value": ""
            },
            "imgUrl83": {
                "type": "text",
                "value": ""
            },
            "imgUrl84": {
                "type": "text",
                "value": ""
            },
            "imgUrl85": {
                "type": "text",
                "value": ""
            },
            "imgUrl86": {
                "type": "text",
                "value": ""
            },
            "imgUrl87": {
                "type": "text",
                "value": ""
            },
            "imgUrl88": {
                "type": "text",
                "value": ""
            },
            "imgUrl89": {
                "type": "text",
                "value": ""
            },
            "imgUrl90": {
                "type": "text",
                "value": ""
            },
            "imgUrl91": {
                "type": "text",
                "value": ""
            },
            "imgUrl92": {
                "type": "text",
                "value": ""
            },
            "imgUrl93": {
                "type": "text",
                "value": ""
            },
            "imgUrl94": {
                "type": "text",
                "value": ""
            },
            "imgUrl95": {
                "type": "text",
                "value": ""
            },
            "imgUrl96": {
                "type": "text",
                "value": ""
            },
            "imgUrl97": {
                "type": "text",
                "value": ""
            },
            "imgUrl98": {
                "type": "text",
                "value": ""
            },
            "imgUrl99": {
                "type": "text",
                "value": ""
            }
        }
    },
    {
        "id": "5acb42e6c93e9",
        "module": "three_goals",
        "fields": {
            "icon1": {
                "type": "text",
                "value": "face"
            },
            "content1": {
                "type": "text",
                "value": "<h5>Faites une belle page web en moins d'une heure<\/h5><p>NoemieCMS est un outil libre qui vous offre tout ce qu\u2019il faut pour faire une page web en toute ind\u00e9pendance \u2014 vous avez le contr\u00f4le de votre page web : c\u2019est vous l\u2019admin\u202f!<\/p>"
            },
            "icon2": {
                "type": "text",
                "value": "toys"
            },
            "content2": {
                "type": "text",
                "value": "<h5>Configuration simple et personnalis\u00e9e<\/h5><p>Nous avons essay\u00e9 de trouver le meilleur compromis entre simplicit\u00e9 et options vari\u00e9es<\/p>"
            },
            "icon3": {
                "type": "text",
                "value": "tag_faces"
            },
            "content3": {
                "type": "text",
                "value": "<h5>D'une simplicit\u00e9 d\u00e9coiffante<\/h5><p>Dans NoemieCMS, tout est pens\u00e9 pour \u00eatre le plus intuitif possible<\/p>"
            }
        }
    },
    {
        "id": "5acb42e6c9466",
        "module": "products",
        "fields": {
            "title": {
                "type": "text",
                "value": "<h4>Explorez les possibilit\u00e9s de votre site !<\/h4>"
            },
            "imgUrl1": {
                "type": "text",
                "value": "app\/views\/modules\/products\/products.jpg"
            },
            "content1": {
                "type": "text",
                "value": "<h5>Des modules pour tout vos besoins<\/h5><p> A placer, \u00e0 d\u00e9placer, \u00e0 modifier en r\u00e9digeant vos textes, en ajoutant vos photos et vos images<\/p>"
            },
            "price1": {
                "type": "text",
                "value": ""
            },
            "imgUrl2": {
                "type": "text",
                "value": "app\/views\/modules\/products\/products.jpg"
            },
            "content2": {
                "type": "text",
                "value": "<h5>Des th\u00e8mes graphiques<\/h5><p>Vous pouvez modifier les couleurs de texte et les couleurs de fond, soyez plein d\u2019imagination\u202f!<\/p>"
            },
            "price2": {
                "type": "text",
                "value": ""
            },
            "imgUrl3": {
                "type": "text",
                "value": "app\/views\/modules\/products\/products.jpg"
            },
            "content3": {
                "type": "text",
                "value": "<h5>Des jeux de polices de caract\u00e8res<\/h5><p>Pour tous les styles, classiques ou plus fantaisistes<\/p>"
            },
            "price3": {
                "type": "text",
                "value": ""
            }
        }
    },
    {
        "id": "5acb42e6c94ed",
        "module": "caroutext",
        "fields": {
            "imgUrl0": {
                "type": "text",
                "value": "app\/views\/modules\/gallery\/aquarelle_2.jpg"
            },
            "imgUrl1": {
                "type": "text",
                "value": "app\/views\/modules\/gallery\/aquarelle_10.jpg"
            },
            "imgUrl2": {
                "type": "text",
                "value": "app\/views\/modules\/gallery\/aquarelle_16.jpg"
            },
            "imgUrl3": {
                "type": "text",
                "value": "app\/views\/modules\/gallery\/aquarelle_17.jpg"
            },
            "title": {
                "type": "text",
                "value": "<h5>Faites le plein d\u2019images !<\/h5>"
            },
            "content": {
                "type": "text",
                "value": "<p>Installez vos images ou gardez celles qui sont fournies ou faites un panach\u00e9. Galerie d\u2019images, carrousel, cartes anim\u00e9es, etc.<\/p>"
            }
        }
    },
    {
        "id": "5acb42e6c9585",
        "module": "video",
        "fields": {
            "videoType": {
                "type": "text",
                "value": "youtube"
            },
            "videoId": {
                "type": "text",
                "value": "5lASkq5RWNE"
            },
            "title": {
                "type": "text",
                "value": "<h4 style=\"text-align:center;\">Besoin d'aide avant de vous lancer dans la cr\u00e9ation de votre page? <\/h4>"
            },
            "content": {
                "type": "text",
                "value": "<p>Cette vid\u00e9o tutoriel vous guidera dans vos premiers pas avec Noemie CMS<\/p>"
            }
        }
    },
    {
        "id": "5acb42e6c95fc",
        "module": "button",
        "fields": {
            "imgUrl": {
                "type": "text",
                "value": ""
            },
            "text": {
                "type": "text",
                "value": "<p style=\"text-align:center;\">Vous avez des comp\u00e9tences en d\u00e9veloppement ou en design ?\u00a0<\/p><p style=\"text-align:center;\">Des id\u00e9es pour am\u00e9liorer cet outil ?<\/p><h5 style=\"text-align:center;\">Rejoignez-nous sur Framagit, c\u2019est ouvert \u00e0 toutes et \u00e0 tous !<\/h5><p><\/p>"
            },
            "btnLabel": {
                "type": "text",
                "value": "Contribuer \u00e0 cet outil !"
            },
            "btnValue": {
                "type": "text",
                "value": "https:\/\/framagit.org\/framasoft\/PrettyNoemieCMS"
            }
        }
    },
    {
        "id": "footer",
        "fields": {
            "rightText": {
                "type": "text",
                "value": "<p class=\"second-color\">Ce pied de page peut \u00eatre rempli \u00e0 votre fa\u00e7on, sur une ou plusieurs lignes.<\/p>"
            },
            "leftText": {
                "type": "text",
                "value": "<h5 class=\"second-color\">NoemieCMS<\/h5><p class=\"second-color\">Made with love by <b>Robin Banquo<\/b> <a href=\"https:\/\/www.patreon.com\/robinbanquo\">vos dons sont  bienvenus\u202f!<\/a><\/p>"
            }
        }
    }
]